<svg width="101" height="40" viewBox="0 0 101 40" fill="none" xmlns="http://www.w3.org/2000/svg">
<path d="M28 9.99304C22.486 9.99404 18 14.48 18 19.994C18 25.507 22.486 29.993 28 29.994C33.514 29.994 38 25.508 38 19.994C38 14.48 33.515 9.99404 28 9.99304ZM28 27.994C23.589 27.993 20 24.404 20 19.994C20 15.583 23.589 11.994 28 11.993C32.411 11.994 36 15.583 36 19.994C36 24.405 32.411 27.994 28 27.994Z" fill="#0136FE"/>
<path d="M29.0002 16H27.0002V20H23.9912L27.9962 24.005L32.0002 20H29.0002V16Z" fill="#0136FE"/>
<path d="M51.374 25.5V15.756H53.572V25.5H51.374ZM48.28 17.534V15.616H56.666V17.534H48.28ZM59.4032 25.654C58.7779 25.654 58.2226 25.528 57.7372 25.276C57.2612 25.0147 56.8879 24.66 56.6172 24.212C56.3466 23.7547 56.2112 23.232 56.2112 22.644V18.696H58.3532V22.616C58.3532 22.8493 58.3906 23.05 58.4652 23.218C58.5492 23.386 58.6706 23.5167 58.8292 23.61C58.9879 23.7033 59.1792 23.75 59.4032 23.75C59.7206 23.75 59.9726 23.652 60.1592 23.456C60.3459 23.2507 60.4392 22.9707 60.4392 22.616V18.696H62.5812V22.63C62.5812 23.2273 62.4459 23.7547 62.1752 24.212C61.9046 24.66 61.5312 25.0147 61.0552 25.276C60.5792 25.528 60.0286 25.654 59.4032 25.654ZM63.9751 25.5V18.696H66.1171V25.5H63.9751ZM66.1171 21.762L65.2211 21.062C65.3984 20.2687 65.6971 19.6527 66.1171 19.214C66.5371 18.7753 67.1204 18.556 67.8671 18.556C68.1938 18.556 68.4784 18.6073 68.7211 18.71C68.9731 18.8033 69.1924 18.9527 69.3791 19.158L68.1051 20.768C68.0118 20.6653 67.8951 20.586 67.7551 20.53C67.6151 20.474 67.4564 20.446 67.2791 20.446C66.9244 20.446 66.6398 20.558 66.4251 20.782C66.2198 20.9967 66.1171 21.3233 66.1171 21.762ZM73.0227 25.654C72.3974 25.654 71.842 25.528 71.3567 25.276C70.8807 25.0147 70.5074 24.66 70.2367 24.212C69.966 23.7547 69.8307 23.232 69.8307 22.644V18.696H71.9727V22.616C71.9727 22.8493 72.01 23.05 72.0847 23.218C72.1687 23.386 72.29 23.5167 72.4487 23.61C72.6074 23.7033 72.7987 23.75 73.0227 23.75C73.34 23.75 73.592 23.652 73.7787 23.456C73.9654 23.2507 74.0587 22.9707 74.0587 22.616V18.696H76.2007V22.63C76.2007 23.2273 76.0654 23.7547 75.7947 24.212C75.524 24.66 75.1507 25.0147 74.6747 25.276C74.1987 25.528 73.648 25.654 73.0227 25.654ZM82.0886 25.5V21.622C82.0886 21.2673 81.9766 20.9827 81.7526 20.768C81.5379 20.544 81.2626 20.432 80.9266 20.432C80.6932 20.432 80.4879 20.4833 80.3106 20.586C80.1332 20.6793 79.9932 20.8193 79.8906 21.006C79.7879 21.1833 79.7366 21.3887 79.7366 21.622L78.9106 21.216C78.9106 20.684 79.0272 20.2173 79.2606 19.816C79.4939 19.4147 79.8159 19.1067 80.2266 18.892C80.6466 18.668 81.1179 18.556 81.6406 18.556C82.1446 18.556 82.5879 18.6773 82.9706 18.92C83.3626 19.1533 83.6706 19.466 83.8946 19.858C84.1186 20.25 84.2306 20.6793 84.2306 21.146V25.5H82.0886ZM77.5946 25.5V18.696H79.7366V25.5H77.5946Z" fill="#0136FE"/>
</svg>
