<svg width="44" height="44" viewBox="0 0 44 44" fill="none" xmlns="http://www.w3.org/2000/svg">
<path d="M22.0001 3.66675C11.8911 3.66675 3.66675 11.8911 3.66675 22.0001C3.66675 32.1091 11.8911 40.3334 22.0001 40.3334C32.1091 40.3334 40.3334 32.1091 40.3334 22.0001C40.3334 11.8911 32.1091 3.66675 22.0001 3.66675ZM28.0372 30.6296L20.1667 22.7591V11.0001H23.8334V21.2411L30.6296 28.0372L28.0372 30.6296Z" fill="#FF7D00"/>
</svg>
