<svg width="44" height="44" viewBox="0 0 44 44" fill="none" xmlns="http://www.w3.org/2000/svg">
<path d="M22.0001 3.6665C11.8911 3.6665 3.66675 11.8908 3.66675 21.9998C3.66675 32.1088 11.8911 40.3332 22.0001 40.3332C32.1091 40.3332 40.3334 32.1088 40.3334 21.9998C40.3334 11.8908 32.1091 3.6665 22.0001 3.6665ZM29.7129 27.1203L27.1206 29.7127L22.0001 24.5922L16.8796 29.7127L14.2872 27.1203L19.4077 21.9998L14.2872 16.8793L16.8796 14.287L22.0001 19.4075L27.1206 14.287L29.7129 16.8793L24.5924 21.9998L29.7129 27.1203Z" fill="#DD0028"/>
</svg>
