<svg width="30" height="30" viewBox="0 0 30 30" fill="none" xmlns="http://www.w3.org/2000/svg">
<path fill-rule="evenodd" clip-rule="evenodd" d="M25.886 7.03905C26.3735 7.52655 26.3735 8.31405 25.886 8.80155L23.5985 11.089L18.911 6.40155L21.1985 4.11405C21.4321 3.87998 21.7491 3.74844 22.0798 3.74844C22.4104 3.74844 22.7275 3.87998 22.961 4.11405L25.886 7.03905ZM3.74854 25.6266V21.8266C3.74854 21.6516 3.81104 21.5016 3.93604 21.3766L17.5735 7.73905L22.261 12.4266L8.61104 26.0641C8.49854 26.1891 8.33604 26.2516 8.17354 26.2516H4.37354C4.02354 26.2516 3.74854 25.9766 3.74854 25.6266Z" fill="#66797A"/>
</svg>
