<svg width="30" height="30" viewBox="0 0 30 30" fill="none" xmlns="http://www.w3.org/2000/svg">
<path d="M7.5 8.75C6.80875 8.75 6.25 8.75 6.25 8.75V25C6.25 26.38 7.37 27.5 8.75 27.5H21.25C22.63 27.5 23.75 26.38 23.75 25V8.75C23.75 8.75 23.1912 8.75 22.5 8.75H7.5ZM20.7725 5L18.75 2.5H11.25L9.2275 5H3.75V7.5H10H20H26.25V5H20.7725Z" fill="#F18EA0"/>
</svg>
